STA141A-ATW-Markdown
…
## --- Extract scores ---
scores<-as_tibble(US_PCA$rotated)
#names(scores)[31] <- "SiteCode"
## --- Extract scores and add to main data frame ---
US_DATA_w_scores<-add_column(US_DATA_LRG,scores)
## --- Extract loadings (format as tibble)---
loadings<-as_tibble(US_PCA$loadings,rownames="species")
loadings

## # A tibble: 30 x 31
##    species      PC1      PC2      PC3      PC4      PC5      PC6      PC7
##    <chr>      <dbl>    <dbl>    <dbl>    <dbl>    <dbl>    <dbl>    <dbl>
##  1 EC       9.85e-2  4.47e-2 -2.51e-2  1.33e-2  5.36e-1  2.12e-1 -7.98e-1
##  2 OC       9.47e-1 -1.82e-1  2.54e-3 -3.71e-3  1.59e-1  2.13e-3  2.11e-1
##  3 OP       2.45e-1 -5.02e-2  3.16e-2  5.45e-2 -8.00e-1 -9.65e-2 -5.27e-1
##  4 AL       6.32e-3  1.77e-2  2.57e-2 -4.36e-1 -3.12e-2 -2.66e-3  4.45e-3
##  5 AS       5.71e-5  2.65e-4  4.77e-5  3.84e-6  3.21e-4  1.51e-4 -6.52e-4
##  6 BR       3.14e-4  6.72e-4  2.69e-5 -3.91e-4  2.04e-3 -1.71e-3 -1.69e-3
##  7 CA       4.39e-3  6.96e-3  7.73e-3 -1.58e-1  9.22e-3 -7.68e-3 -6.37e-2
##  8 CL      -1.33e-3  5.86e-3 -5.81e-4  3.50e-3  1.48e-1 -7.68e-1 -1.68e-1
##  9 CR       3.50e-5  1.17e-4  2.48e-5 -3.92e-4  3.25e-4  7.81e-5 -3.39e-4
## 10 CU       2.52e-4  4.83e-4 -3.03e-4 -1.33e-3  4.11e-3  5.71e-4 -3.66e-3
## # ... with 20 more rows, and 23 more variables: PC8 <dbl>, PC9 <dbl>,
## #   PC10 <dbl>, PC11 <dbl>, PC12 <dbl>, PC13 <dbl>, PC14 <dbl>, PC15 <dbl>,
## #   PC16 <dbl>, PC17 <dbl>, PC18 <dbl>, PC19 <dbl>, PC20 <dbl>, PC21 <dbl>,
## #   PC22 <dbl>, PC23 <dbl>, PC24 <dbl>, PC25 <dbl>, PC26 <dbl>, PC27 <dbl>,
## #   PC28 <dbl>, PC29 <dbl>, PC30 <dbl>
…
