Appendix 2 STA206 Final Project
…
Andrew T. Weakley

11/23/2020

 Step 1: Load and process the data -

## --- Part a: Upload Metadata for samples ---
META_DATA<-as_tibble(read.csv("IMPROVE_metadata.csv"))
## --- Filter samples based on living in SW ---
# --- Consider only AZ and NM for simplicity
# (Definition of American  "Southwest" varies by source. However, AZ and NM are always included.
SW_META<-as_tibble(META_DATA %>% filter(State =="AZ" | State =="NM"))
SW_META

## # A tibble: 30 x 19
##    Site  Code  Dataset Country State County AQSCode Latitude Longitude Elevation
##    <chr> <chr> <chr>   <chr>   <chr>  <int>   <int>    <dbl>     <dbl>     <int>
##  1 Band~ BAND1 IMPAER  US      NM     35028  3.50e8     35.8     -106.      1988
##  2 Bosq~ BOAP1 IMPAER  US      NM     35053  3.51e8     33.9     -107.      1389
##  3 Carl~ CAVE1 IMPAER  US      NM     35015 NA          32.2     -104.      1355
##  4 Chir~ CHIR1 IMPAER  US      AZ      4003  4.00e7     32.0     -109.      1554
##  5 Doug~ DOUG1 IMPAER  US      AZ      4003  4.00e7     31.3     -110.      1230
##  6 Gila~ GICL1 IMPAER  US      NM     35003  3.50e8     33.2     -108.      1775
##  7 Hanc~ GRCA2 IMPAER  US      AZ      4005  4.01e7     36.0     -112.      2267
##  8 Hill~ HILL1 IMPAER  US      AZ      4025  4.03e7     34.4     -113.      1510
##  9 Hopi~ GRCA1 IMPAER  US      AZ      4005  4.01e7     36.1     -112.      2164
## 10 Ike'~ IKBA1 IMPAER  US      AZ      4025  4.03e7     34.3     -112.      1297
## # ... with 20 more rows, and 9 more variables: StartDate <chr>, EndDate <chr>,
## #   DemographicCode <chr>, LandUseCode <chr>, StreetAddress <chr>,
## #   LocDesc <chr>, Sponsor <chr>, ProgramKey <chr>, NumPOCs <int>
…
